# Blender v3.0.1 OBJ File: 'untitled.blend'
# www.blender.org
o Cube.002_Cube.003
v -0.018000 0.005000 0.033000
v -0.017000 0.030000 0.032000
v -0.018000 0.005000 -0.033000
v -0.017000 0.030000 -0.032000
v 0.018000 0.005000 0.033000
v 0.017000 0.030000 0.032000
v 0.018000 0.005000 -0.033000
v 0.017000 0.030000 -0.032000
v -0.018000 0.030000 0.033000
v -0.018000 0.030000 -0.033000
v 0.018000 0.030000 -0.033000
v 0.018000 0.030000 0.033000
v -0.017000 0.021000 0.032000
v -0.017000 0.021000 -0.032000
v 0.017000 0.021000 -0.032000
v 0.017000 0.021000 0.032000
v -0.017000 0.010000 0.032000
v -0.017000 0.010000 -0.032000
v 0.017000 0.010000 -0.032000
v 0.017000 0.010000 0.032000
v -0.017000 0.021000 -0.033000
v 0.017000 0.021000 -0.033000
v -0.017000 0.010000 -0.033000
v 0.017000 0.010000 -0.033000
vt 0.375000 0.000000
vt 0.625000 0.000000
vt 0.625000 0.250000
vt 0.375000 0.250000
vt 0.375000 0.500000
vt 0.625000 0.500000
vt 0.625000 0.750000
vt 0.375000 0.750000
vt 0.625000 1.000000
vt 0.375000 1.000000
vt 0.125000 0.500000
vt 0.125000 0.750000
vt 0.631579 0.746429
vt 0.631579 0.503571
vt 0.631579 0.503571
vt 0.631579 0.746429
vt 0.868421 0.746429
vt 0.868421 0.503571
vt 0.875000 0.500000
vt 0.875000 0.750000
vt 0.868421 0.746429
vt 0.631579 0.746429
vt 0.868421 0.746429
vt 0.868421 0.503571
vt 0.631579 0.503571
vt 0.868421 0.503571
vt 0.631579 0.503571
vt 0.631579 0.503571
vt 0.868421 0.503571
vt 0.868421 0.503571
vn -1.0000 0.0000 0.0000
vn 1.0000 0.0000 0.0000
vn 0.0000 0.0000 1.0000
vn 0.0000 -1.0000 0.0000
vn 0.0000 1.0000 0.0000
vn 0.0000 0.0000 -1.0000
s off
f 1/1/1 9/2/1 10/3/1 3/4/1
f 7/5/2 11/6/2 12/7/2 5/8/2
f 5/8/3 12/7/3 9/9/3 1/10/3
f 3/11/4 7/5/4 5/8/4 1/12/4
f 6/13/1 8/14/1 15/15/1 16/16/1
f 2/17/5 4/18/5 10/19/5 9/20/5
f 4/18/5 8/14/5 11/6/5 10/19/5
f 8/14/5 6/13/5 12/7/5 11/6/5
f 6/13/5 2/17/5 9/20/5 12/7/5
f 13/21/6 16/16/6 20/22/6 17/23/6
f 4/18/2 2/17/2 13/21/2 14/24/2
f 2/17/6 6/13/6 16/16/6 13/21/6
f 8/14/3 4/18/3 14/24/3 15/15/3
f 19/25/5 18/26/5 17/23/5 20/22/5
f 19/25/1 15/15/1 22/27/1 24/28/1
f 16/16/1 15/15/1 19/25/1 20/22/1
f 14/24/2 13/21/2 17/23/2 18/26/2
f 18/26/5 19/25/5 24/28/5 23/29/5
f 14/24/2 18/26/2 23/29/2 21/30/2
f 15/15/4 14/24/4 21/30/4 22/27/4
f 11/6/6 22/27/6 21/30/6 10/19/6
f 7/5/6 3/11/6 23/29/6 24/28/6
f 11/6/6 7/5/6 24/28/6 22/27/6
f 3/11/6 10/19/6 21/30/6 23/29/6
